<svg width="48" height="48" viewBox="0 0 48 48" fill="none" xmlns="http://www.w3.org/2000/svg">
<rect width="48" height="48" rx="8" fill="#AFBDD7"/>
<circle cx="24" cy="24" r="14" fill="white"/>
<path d="M21.8294 24.8272C21.8294 24.6267 21.6668 24.4644 21.4662 24.4644H20.1989C19.9985 24.4644 19.8359 24.6267 19.8359 24.8272V26.0943C19.8359 26.295 19.9985 26.4574 20.1989 26.4574H21.4662C21.6668 26.4574 21.8294 26.295 21.8294 26.0943V24.8272Z" fill="#6188D0"/>
<path d="M24.9967 24.8272C24.9967 24.6267 24.8341 24.4644 24.6339 24.4644H23.3664C23.166 24.4644 23.0034 24.6267 23.0034 24.8272V26.0943C23.0034 26.295 23.166 26.4574 23.3664 26.4574H24.6339C24.8341 26.4574 24.9967 26.295 24.9967 26.0943V24.8272Z" fill="#6188D0"/>
<path d="M28.1641 24.8272C28.1641 24.6267 28.0015 24.4644 27.8011 24.4644H26.5338C26.3332 24.4644 26.1707 24.6267 26.1707 24.8272V26.0943C26.1707 26.295 26.3332 26.4574 26.5338 26.4574H27.8011C28.0015 26.4574 28.1641 26.295 28.1641 26.0943V24.8272Z" fill="#6188D0"/>
<path d="M21.8294 27.9946C21.8294 27.7938 21.6668 27.6316 21.4662 27.6316H20.1989C19.9985 27.6316 19.8359 27.7938 19.8359 27.9946V29.2615C19.8359 29.4621 19.9985 29.6245 20.1989 29.6245H21.4662C21.6668 29.6245 21.8294 29.462 21.8294 29.2615V27.9946Z" fill="#6188D0"/>
<path d="M24.9967 27.9946C24.9967 27.7938 24.8341 27.6316 24.6339 27.6316H23.3664C23.166 27.6316 23.0034 27.7938 23.0034 27.9946V29.2615C23.0034 29.4621 23.166 29.6245 23.3664 29.6245H24.6339C24.8341 29.6245 24.9967 29.462 24.9967 29.2615V27.9946Z" fill="#6188D0"/>
<path d="M28.1641 27.9946C28.1641 27.7938 28.0015 27.6316 27.8013 27.6316H26.5338C26.3332 27.6316 26.1707 27.7938 26.1707 27.9946V29.2615C26.1707 29.4621 26.3332 29.6245 26.5338 29.6245H27.8013C28.0015 29.6245 28.1641 29.462 28.1641 29.2615V27.9946Z" fill="#6188D0"/>
<path d="M30.43 17.7815V19.7169C30.43 20.5918 29.7203 21.2967 28.8456 21.2967H27.8461C26.9714 21.2967 26.2523 20.5918 26.2523 19.7169V17.7745H21.7475V19.7169C21.7475 20.5918 21.0284 21.2967 20.1538 21.2967H19.1542C18.2795 21.2967 17.5699 20.5918 17.5699 19.7169V17.7815C16.8054 17.8045 16.1772 18.4371 16.1772 19.2146V30.5573C16.1772 31.3494 16.8193 32 17.6114 32H30.3884C31.1793 32 31.8225 31.3481 31.8225 30.5573V19.2146C31.8225 18.4371 31.1944 17.8045 30.43 17.7815ZM29.9657 29.851C29.9657 30.1933 29.6882 30.471 29.3457 30.471H18.6267C18.2843 30.471 18.0067 30.1933 18.0067 29.851V23.992C18.0067 23.6496 18.2843 23.3719 18.6267 23.3719H29.3457C29.6882 23.3719 29.9657 23.6496 29.9657 23.992L29.9657 29.851Z" fill="#6188D0"/>
<path d="M19.151 20.2592H20.1396C20.4397 20.2592 20.683 20.0162 20.683 19.7162V16.5432C20.683 16.2431 20.4397 16 20.1396 16H19.151C18.8509 16 18.6077 16.2431 18.6077 16.5432V19.7162C18.6077 20.0162 18.8509 20.2592 19.151 20.2592Z" fill="#6188D0"/>
<path d="M27.8336 20.2592H28.8222C29.1221 20.2592 29.3654 20.0162 29.3654 19.7162V16.5432C29.3654 16.2431 29.1221 16 28.8222 16H27.8336C27.5336 16 27.2903 16.2431 27.2903 16.5432V19.7162C27.2903 20.0162 27.5336 20.2592 27.8336 20.2592Z" fill="#6188D0"/>
</svg>
