<svg width="48" height="48" viewBox="0 0 48 48" fill="none" xmlns="http://www.w3.org/2000/svg">
<rect width="48" height="48" rx="8" fill="#FFA98D"/>
<circle cx="24" cy="24" r="14" fill="white"/>
<path d="M22.5938 24.4688H25.4062V25.4062H22.5938V24.4688Z" fill="#FF7347"/>
<path d="M28.9806 25.4062H26.3438V25.875C26.3438 26.134 26.134 26.3438 25.875 26.3438H22.125C21.866 26.3438 21.6562 26.134 21.6562 25.875V25.4062H19.0194C18.4133 25.4062 17.8773 25.0199 17.6854 24.4449L16 19.3878V29.625C16 30.4004 16.6309 31.0312 17.4062 31.0312H30.5938C31.3691 31.0312 32 30.4004 32 29.625V19.3882L30.3145 24.4449C30.1227 25.0199 29.5867 25.4062 28.9806 25.4062Z" fill="#FF7347"/>
<path d="M25.8751 16.9688H22.1251C21.3497 16.9688 20.7189 17.5996 20.7189 18.375V18.8438H16.8066L18.5746 24.1483C18.6387 24.3401 18.8176 24.4688 19.0195 24.4688H21.6564V24C21.6564 23.741 21.8661 23.5312 22.1251 23.5312H25.8751C26.1342 23.5312 26.3439 23.741 26.3439 24V24.4688H28.9807C29.1826 24.4688 29.3616 24.3401 29.4257 24.1483L31.1937 18.8438H27.2814V18.375C27.2814 17.5996 26.6505 16.9688 25.8751 16.9688ZM21.6564 18.8438V18.375C21.6564 18.1163 21.8665 17.9062 22.1251 17.9062H25.8751C26.1338 17.9062 26.3439 18.1163 26.3439 18.375V18.8438H21.6564Z" fill="#FF7347"/>
</svg>
