<svg width="48" height="48" viewBox="0 0 48 48" fill="none" xmlns="http://www.w3.org/2000/svg">
<rect width="48" height="48" rx="8" fill="#FFD875"/>
<circle cx="24" cy="24" r="14" fill="white"/>
<path d="M32 21.3767V20.5627L29.8651 18.1894H22.7947L21.9823 16H20.7052L19.8927 18.1894H18.8125V17.3438H17.875V18.1894H16V21.3767H17.875V22.2223H18.8125V21.3767H19.75V32H22.9374V21.3767H28.75V25.3582H28.03V27.7356H28.75V28.4219C28.75 29.1973 29.3808 29.8281 30.1562 29.8281H30.6562V28.8906H30.1562C29.8978 28.8906 29.6875 28.6803 29.6875 28.4219V27.7356H30.4075V25.3582H29.6875V21.3767H32ZM27.1867 19.1269H28.3738V20.4392H27.1867V19.1269ZM26.2492 20.4392H25.062V19.1269H26.2492V20.4392ZM30.6279 20.4392H29.3113V19.1269H29.4474L30.6279 20.4392ZM21.9999 19.1269V20.4392H20.6875V19.1269H21.9999ZM21.3437 16.974L21.7947 18.1894H20.8927L21.3437 16.974ZM16.9375 20.4392V19.1269H17.875V20.4392H16.9375ZM18.8125 20.4392V19.1269H19.75V20.4392H18.8125ZM20.6875 27.7507H21.9999V28.9378H20.6875V27.7507ZM20.6875 26.8132V25.626H21.9999V26.8132H20.6875ZM20.6875 24.6885V23.5014H21.9999V24.6885H20.6875ZM20.6875 31.0625V29.8753H21.9999V31.0625H20.6875ZM21.9999 22.5639H20.6875V21.3767H21.9999V22.5639ZM22.9374 19.1269H24.1246V20.4392H22.9374V19.1269Z" fill="#FFC329"/>
</svg>
