<svg width="48" height="48" viewBox="0 0 48 48" fill="none" xmlns="http://www.w3.org/2000/svg">
<rect width="48" height="48" rx="8" fill="#67F09E"/>
<circle cx="24" cy="24" r="14" fill="white"/>
<path d="M31.0622 16C27.8633 16 24 18.2969 24 21.1492C24 21.1659 24.0046 21.2134 24.0068 21.2301C24.0121 21.3921 24.1236 21.5313 24.2806 21.571C24.4364 21.6112 24.6023 21.5426 24.6839 21.4027C25.6403 19.7713 27.043 18.5167 28.973 17.5668C29.1517 17.4773 29.3725 17.5568 29.4592 17.7322C29.5021 17.8196 29.5085 17.9183 29.4773 18.0103C29.446 18.1023 29.381 18.1765 29.294 18.2191C27.125 19.2872 25.6677 20.7573 24.8367 22.71C24.8232 22.7299 24.8062 22.7465 24.7965 22.7695C24.2752 24.0266 24.0071 25.5184 24 27.2038C23.8717 26.8658 23.7202 26.5444 23.5572 26.2309C23.8462 25.7875 24 25.305 24 24.7855C24 21.9332 20.1367 19.6363 16.9378 19.6363C16.4208 19.6364 16 20.0572 16 20.5742C16 23.7731 18.2969 27.6364 21.1495 27.6364C21.8513 27.6364 22.4872 27.3618 23.046 26.8359C23.6833 28.1796 24 29.7574 24 31.6364C24 31.8374 24.1626 32 24.3636 32C24.5646 32 24.7273 31.8374 24.7273 31.6364V27.2727C24.7273 25.8496 24.9316 24.5894 25.3128 23.497C25.7818 23.829 26.2966 24 26.8508 24C29.7031 24 32 20.1367 32 16.9379C32 16.4208 31.5792 16 31.0622 16Z" fill="#2DE376"/>
</svg>
