<svg width="48" height="48" viewBox="0 0 48 48" fill="none" xmlns="http://www.w3.org/2000/svg">
<rect width="48" height="48" rx="8" fill="#7986FD"/>
<circle cx="24" cy="24" r="14" fill="white"/>
<g clip-path="url(#clip0)">
<path d="M26.4808 23.6654L27.6074 22.5388C28.4213 22.8619 29.3399 22.8418 30.1408 22.4785C30.3375 22.3893 30.3845 22.1311 30.2318 21.9784L28.2255 19.9722C27.9818 19.7284 27.9818 19.3332 28.2255 19.0895L30.2297 17.0853C30.3834 16.9316 30.3361 16.6715 30.1381 16.5819C28.9462 16.0426 27.4947 16.2628 26.515 17.2425C25.5947 18.1627 25.347 19.5087 25.7713 20.6584L24.6226 21.8072L26.4808 23.6654Z" fill="#606FFF"/>
<path d="M24.3279 22.1018L22.771 20.5449L20.9128 22.4031L22.4697 23.96L24.3279 25.8182L30.02 31.5103C30.1013 31.5916 30.2079 31.6323 30.3144 31.6323C30.421 31.6323 30.5275 31.5916 30.6088 31.5103L31.8782 30.2409C32.0408 30.0783 32.0408 29.8147 31.8782 29.6522L26.1861 23.96L24.3279 22.1018Z" fill="#606FFF"/>
<path d="M31.0721 18.1333L29.4077 19.7978C29.2746 19.9309 29.2746 20.1467 29.4077 20.2797L30.6905 21.5626C30.8338 21.7058 31.071 21.6944 31.1967 21.5356C31.9497 20.585 32.0922 19.3093 31.6244 18.2355C31.5289 18.0164 31.2411 17.9643 31.0721 18.1333Z" fill="#606FFF"/>
<path d="M18.3264 26.0216L20.3326 28.0279C20.5764 28.2716 20.5764 28.6669 20.3326 28.9106L18.3285 30.9148C18.1748 31.0685 18.2221 31.3286 18.4201 31.4182C19.6119 31.9574 21.0635 31.7373 22.0432 30.7576C22.9601 29.8407 23.2094 28.501 22.7914 27.3541L24.0326 26.1128L22.1745 24.2546L20.9629 25.4662C20.146 25.1381 19.2224 25.1565 18.4175 25.5216C18.2208 25.6107 18.1737 25.869 18.3264 26.0216Z" fill="#606FFF"/>
<path d="M17.3614 26.4978C16.6084 27.4484 16.4659 28.7241 16.9337 29.7979C17.0292 30.017 17.317 30.0691 17.4859 29.9001L19.1504 28.2356C19.2835 28.1025 19.2835 27.8868 19.1504 27.7537L17.8676 26.4708C17.7243 26.3276 17.4871 26.339 17.3614 26.4978Z" fill="#606FFF"/>
<path d="M18.3142 23.6906C18.5134 23.8899 18.8365 23.8899 19.0357 23.6906L19.1319 23.5944C19.3312 23.3952 19.3312 23.0721 19.1319 22.8729L18.9395 22.6805L19.3184 22.3016L17.5385 20.5217L17.1597 20.9006L16.9672 20.7081C16.768 20.5089 16.4449 20.5089 16.2457 20.7081L16.1495 20.8044C15.9502 21.0036 15.9502 21.3267 16.1495 21.5259L18.3142 23.6906Z" fill="#606FFF"/>
<path d="M21.0671 17.0994L22.8247 18.857C24.8511 17.5068 25.9838 18.6393 24.426 17.0816C23.3487 16.0042 21.9883 16.514 21.0671 17.0994Z" fill="#606FFF"/>
<path d="M20.5275 17.1485C20.4278 17.0488 20.2973 16.999 20.1667 16.999C20.0361 16.999 19.9055 17.0488 19.8059 17.1485L17.6411 19.3132C17.4419 19.5125 17.4419 19.8355 17.6411 20.0348L17.8336 20.2272L19.6135 22.0071L19.8059 22.1995C19.9055 22.2991 20.0361 22.349 20.1667 22.349C20.1982 22.349 20.2298 22.346 20.2609 22.3402C20.3338 22.3265 20.4043 22.297 20.4668 22.2514C20.488 22.2359 20.5083 22.2187 20.5274 22.1995L20.6185 22.1085L22.4766 20.2503L22.6239 20.103L22.6922 20.0348C22.7194 20.0076 22.7427 19.9781 22.7625 19.9469C22.8876 19.7496 22.8642 19.4853 22.6922 19.3132L22.4827 19.1037L20.7179 17.3389L20.5275 17.1485Z" fill="#606FFF"/>
</g>
<defs>
<clipPath id="clip0">
<rect width="16" height="16" fill="white" transform="translate(16 16)"/>
</clipPath>
</defs>
</svg>
