<svg width="6" height="8" viewBox="0 0 6 8" fill="none" xmlns="http://www.w3.org/2000/svg">
<path d="M5.27301 7.06L2.21967 4L5.27301 0.94L4.33301 0L0.333008 4L4.33301 8L5.27301 7.06Z" fill="#0094FF"/>
</svg>
